{"count":52,"next":"https://metax-test.csc.fi/rest/datasets?limit=10&offset=10","previous":null,"results":[{"id":1,"identifier":"cr955e904-e3dd-4d7e-99f1-3fed446f96d1","data_catalog":{"id":1,"identifier":"urn:nbn:fi:att:2955e904-e3dd-4d7e-99f1-3fed446f96d1"},"dataset_version_set":[{"identifier":"cr955e904-e3dd-4d7e-99f1-3fed446f96d1","preferred_identifier":"urn:nbn:fi:att:1955e904-e3dd-4d7e-99f1-3fed446f96d1","removed":false,"date_created":"2017-05-23T13:07:22+03:00"}],"deprecated":false,"metadata_owner_org":"abc-org-123","metadata_provider_org":"abc-org-123","metadata_provider_user":"abc-user-123","research_dataset":{"files":[{"title":"File metadata title 1","file_type":{"identifier":"http://uri.suomi.fi/codelist/fairdata/file_type/code/text"},"identifier":"pid:urn:1","use_category":{"identifier":"http://uri.suomi.fi/codelist/fairdata/use_category/code/source"}},{"title":"File metadata title 2","file_type":{"identifier":"http://uri.suomi.fi/codelist/fairdata/file_type/code/text"},"identifier":"pid:urn:2","use_category":{"identifier":"http://uri.suomi.fi/codelist/fairdata/use_category/code/source"}}],"title":{"en":"Wonderful Title"},"creator":[{"name":"Teppo Testaaja","@type":"Person","member_of":{"name":{"fi":"Mysteeriorganisaatio"},"@type":"Organization"},"contributor_role":[{"identifier":"http://uri.suomi.fi/codelist/fairdata/contributor_role/code/visualization"}]}],"curator":[{"name":"Rahikainen","@type":"Person","member_of":{"name":{"fi":"MysteeriOrganisaatio"},"@type":"Organization"},"identifier":"id:of:curator:rahikainen"}],"language":[{"identifier":"http://lexvo.org/id/iso639-3/eng"}],"modified":"2014-01-17T08:19:58Z","description":{"en":"A descriptive description describing the contents of this dataset. Must be descriptive."},"access_rights":{"access_type":{"identifier":"http://uri.suomi.fi/codelist/fairdata/access_type/code/open"}},"version_notes":["This version contains changes to x and y."],"preferred_identifier":"urn:nbn:fi:att:1955e904-e3dd-4d7e-99f1-3fed446f96d1","total_files_byte_size":300,"metadata_version_identifier":"1955e904-e3dd-4d7e-99f1-3fed446f96d1"},"preservation_state":0,"editor":{"owner_id":"053bffbcc41edad4853bea91fc42ea18","record_id":"955e904-e3dd-4d7e-99f1-3fed446f9001","creator_id":"053bffbcc41edad4853bea91fc42ea18","identifier":"qvain"},"date_created":"2017-05-23T13:07:22+03:00","service_created":"metax","removed":false},{"id":2,"identifier":"cr955e904-e3dd-4d7e-99f1-3fed446f96d2","contract":{"id":1,"identifier":"urn:uuid:99ddffff-2f73-46b0-92d1-614409d83001"},"data_catalog":{"id":1,"identifier":"urn:nbn:fi:att:2955e904-e3dd-4d7e-99f1-3fed446f96d1"},"dataset_version_set":[{"identifier":"cr955e904-e3dd-4d7e-99f1-3fed446f96d2","preferred_identifier":"urn:nbn:fi:att:1955e904-e3dd-4d7e-99f1-3fed446f96d2","removed":false,"date_created":"2017-05-23T13:07:22+03:00"}],"deprecated":false,"metadata_owner_org":"abc-org-123","metadata_provider_org":"abc-org-123","metadata_provider_user":"abc-user-123","research_dataset":{"files":[{"title":"File metadata title 3","file_type":{"identifier":"http://uri.suomi.fi/codelist/fairdata/file_type/code/text"},"identifier":"pid:urn:3","use_category":{"identifier":"http://uri.suomi.fi/codelist/fairdata/use_category/code/source"}},{"title":"File metadata title 4","file_type":{"identifier":"http://uri.suomi.fi/codelist/fairdata/file_type/code/video"},"identifier":"pid:urn:4","use_category":{"identifier":"http://uri.suomi.fi/codelist/fairdata/use_category/code/outcome"}}],"title":{"en":"Wonderful Title"},"creator":[{"name":"Teppo Testaaja","@type":"Person","member_of":{"name":{"fi":"Mysteeriorganisaatio"},"@type":"Organization"},"contributor_role":[{"identifier":"http://uri.suomi.fi/codelist/fairdata/contributor_role/code/visualization"}]}],"curator":[{"name":"Rahikainen","@type":"Person","member_of":{"name":{"fi":"MysteeriOrganisaatio"},"@type":"Organization"},"identifier":"id:of:curator:rahikainen"}],"language":[{"identifier":"http://lexvo.org/id/iso639-3/eng"}],"modified":"2014-01-17T08:19:58Z","description":{"en":"A descriptive description describing the contents of this dataset. Must be descriptive."},"access_rights":{"access_type":{"identifier":"http://uri.suomi.fi/codelist/fairdata/access_type/code/open"}},"version_notes":["This version contains changes to x and y."],"preferred_identifier":"urn:nbn:fi:att:1955e904-e3dd-4d7e-99f1-3fed446f96d2","total_files_byte_size":700,"metadata_version_identifier":"1955e904-e3dd-4d7e-99f1-3fed446f96d2"},"preservation_state":10,"preservation_state_modified":"2017-05-23T13:07:22.559656+03:00","editor":{"owner_id":"053d18ecb29e752cb7a35cd77b34f5fd","record_id":"955e904-e3dd-4d7e-99f1-3fed446f9002","creator_id":"053d18ecb29e752cb7a35cd77b34f5fd","identifier":"qvain"},"date_created":"2017-05-23T13:07:22+03:00","service_created":"metax","removed":false},{"id":3,"identifier":"cr955e904-e3dd-4d7e-99f1-3fed446f96d3","contract":{"id":1,"identifier":"urn:uuid:99ddffff-2f73-46b0-92d1-614409d83001"},"data_catalog":{"id":1,"identifier":"urn:nbn:fi:att:2955e904-e3dd-4d7e-99f1-3fed446f96d1"},"dataset_version_set":[{"identifier":"cr955e904-e3dd-4d7e-99f1-3fed446f96d3","preferred_identifier":"urn:nbn:fi:att:1955e904-e3dd-4d7e-99f1-3fed446f96d3","removed":false,"date_created":"2017-05-23T13:07:22+03:00"}],"deprecated":false,"metadata_owner_org":"abc-org-123","metadata_provider_org":"abc-org-123","metadata_provider_user":"abc-user-123","research_dataset":{"files":[{"title":"File metadata title 5","file_type":{"identifier":"http://uri.suomi.fi/codelist/fairdata/file_type/code/video"},"identifier":"pid:urn:5","use_category":{"identifier":"http://uri.suomi.fi/codelist/fairdata/use_category/code/outcome"}},{"title":"File metadata title 6","file_type":{"identifier":"http://uri.suomi.fi/codelist/fairdata/file_type/code/video"},"identifier":"pid:urn:6","use_category":{"identifier":"http://uri.suomi.fi/codelist/fairdata/use_category/code/outcome"}}],"title":{"en":"Wonderful Title"},"creator":[{"name":"Teppo Testaaja","@type":"Person","member_of":{"name":{"fi":"Mysteeriorganisaatio"},"@type":"Organization"},"contributor_role":[{"identifier":"http://uri.suomi.fi/codelist/fairdata/contributor_role/code/visualization"}]}],"curator":[{"name":"Rahikainen","@type":"Person","member_of":{"name":{"fi":"MysteeriOrganisaatio"},"@type":"Organization"},"identifier":"id:of:curator:rahikainen"}],"language":[{"identifier":"http://lexvo.org/id/iso639-3/eng"}],"modified":"2014-01-17T08:19:58Z","description":{"en":"A descriptive description describing the contents of this dataset. Must be descriptive."},"access_rights":{"access_type":{"identifier":"http://uri.suomi.fi/codelist/fairdata/access_type/code/open"}},"version_notes":["This version contains changes to x and y."],"preferred_identifier":"urn:nbn:fi:att:1955e904-e3dd-4d7e-99f1-3fed446f96d3","total_files_byte_size":1100,"metadata_version_identifier":"1955e904-e3dd-4d7e-99f1-3fed446f96d3"},"preservation_state":10,"preservation_state_modified":"2017-05-23T13:07:22.559656+03:00","editor":{"owner_id":"05593961536b76fa825281ccaedd4d4f","record_id":"955e904-e3dd-4d7e-99f1-3fed446f9003","creator_id":"05593961536b76fa825281ccaedd4d4f","identifier":"qvain"},"date_created":"2017-05-23T13:07:22+03:00","service_created":"metax","removed":false},{"id":4,"identifier":"cr955e904-e3dd-4d7e-99f1-3fed446f96d4","contract":{"id":1,"identifier":"urn:uuid:99ddffff-2f73-46b0-92d1-614409d83001"},"data_catalog":{"id":1,"identifier":"urn:nbn:fi:att:2955e904-e3dd-4d7e-99f1-3fed446f96d1"},"dataset_version_set":[{"identifier":"cr955e904-e3dd-4d7e-99f1-3fed446f96d4","preferred_identifier":"urn:nbn:fi:att:1955e904-e3dd-4d7e-99f1-3fed446f96d4","removed":false,"date_created":"2017-05-23T13:07:22+03:00"}],"deprecated":false,"metadata_owner_org":"abc-org-123","metadata_provider_org":"abc-org-123","metadata_provider_user":"abc-user-123","research_dataset":{"files":[{"title":"File metadata title 7","file_type":{"identifier":"http://uri.suomi.fi/codelist/fairdata/file_type/code/video"},"identifier":"pid:urn:7","use_category":{"identifier":"http://uri.suomi.fi/codelist/fairdata/use_category/code/outcome"}},{"title":"File metadata title 8","file_type":{"identifier":"http://uri.suomi.fi/codelist/fairdata/file_type/code/image"},"identifier":"pid:urn:8","use_category":{"identifier":"http://uri.suomi.fi/codelist/fairdata/use_category/code/publication"}}],"title":{"en":"Wonderful Title"},"creator":[{"name":"Teppo Testaaja","@type":"Person","member_of":{"name":{"fi":"Mysteeriorganisaatio"},"@type":"Organization"},"contributor_role":[{"identifier":"http://uri.suomi.fi/codelist/fairdata/contributor_role/code/visualization"}]}],"curator":[{"name":"Rahikainen","@type":"Person","member_of":{"name":{"fi":"MysteeriOrganisaatio"},"@type":"Organization"},"identifier":"id:of:curator:rahikainen"}],"language":[{"identifier":"http://lexvo.org/id/iso639-3/eng"}],"modified":"2014-01-17T08:19:58Z","description":{"en":"A descriptive description describing the contents of this dataset. Must be descriptive."},"access_rights":{"access_type":{"identifier":"http://uri.suomi.fi/codelist/fairdata/access_type/code/open"}},"version_notes":["This version contains changes to x and y."],"preferred_identifier":"urn:nbn:fi:att:1955e904-e3dd-4d7e-99f1-3fed446f96d4","total_files_byte_size":1500,"metadata_version_identifier":"1955e904-e3dd-4d7e-99f1-3fed446f96d4"},"preservation_state":40,"preservation_state_modified":"2017-05-23T13:07:22.559656+03:00","editor":{"owner_id":"055ea4dade5ab2145954f56d4b51cef0","record_id":"955e904-e3dd-4d7e-99f1-3fed446f9004","creator_id":"055ea4dade5ab2145954f56d4b51cef0","identifier":"qvain"},"date_created":"2017-05-23T13:07:22+03:00","service_created":"metax","removed":false},{"id":5,"identifier":"cr955e904-e3dd-4d7e-99f1-3fed446f96d5","contract":{"id":1,"identifier":"urn:uuid:99ddffff-2f73-46b0-92d1-614409d83001"},"data_catalog":{"id":1,"identifier":"urn:nbn:fi:att:2955e904-e3dd-4d7e-99f1-3fed446f96d1"},"dataset_version_set":[{"identifier":"cr955e904-e3dd-4d7e-99f1-3fed446f96d5","preferred_identifier":"urn:nbn:fi:att:1955e904-e3dd-4d7e-99f1-3fed446f96d5","removed":false,"date_created":"2017-05-23T13:07:22+03:00"}],"deprecated":false,"metadata_owner_org":"abc-org-123","metadata_provider_org":"abc-org-123","metadata_provider_user":"abc-user-123","research_dataset":{"files":[{"title":"File metadata title 9","file_type":{"identifier":"http://uri.suomi.fi/codelist/fairdata/file_type/code/image"},"identifier":"pid:urn:9","use_category":{"identifier":"http://uri.suomi.fi/codelist/fairdata/use_category/code/publication"}},{"title":"File metadata title 10","file_type":{"identifier":"http://uri.suomi.fi/codelist/fairdata/file_type/code/image"},"identifier":"pid:urn:10","use_category":{"identifier":"http://uri.suomi.fi/codelist/fairdata/use_category/code/publication"}}],"title":{"en":"Wonderful Title"},"creator":[{"name":"Teppo Testaaja","@type":"Person","member_of":{"name":{"fi":"Mysteeriorganisaatio"},"@type":"Organization"},"contributor_role":[{"identifier":"http://uri.suomi.fi/codelist/fairdata/contributor_role/code/visualization"}]}],"curator":[{"name":"Rahikainen","@type":"Person","member_of":{"name":{"fi":"MysteeriOrganisaatio"},"@type":"Organization"},"identifier":"id:of:curator:rahikainen"}],"language":[{"identifier":"http://lexvo.org/id/iso639-3/eng"}],"modified":"2014-01-17T08:19:58Z","description":{"en":"A descriptive description describing the contents of this dataset. Must be descriptive."},"access_rights":{"access_type":{"identifier":"http://uri.suomi.fi/codelist/fairdata/access_type/code/open"}},"version_notes":["This version contains changes to x and y."],"preferred_identifier":"urn:nbn:fi:att:1955e904-e3dd-4d7e-99f1-3fed446f96d5","total_files_byte_size":1900,"metadata_version_identifier":"1955e904-e3dd-4d7e-99f1-3fed446f96d5"},"preservation_state":50,"preservation_state_modified":"2017-05-23T13:07:22.559656+03:00","editor":{"owner_id":"055ea531a6cac569425bed94459266ee","record_id":"955e904-e3dd-4d7e-99f1-3fed446f9005","creator_id":"055ea531a6cac569425bed94459266ee","identifier":"qvain"},"date_created":"2017-05-23T13:07:22+03:00","service_created":"metax","removed":false},{"id":6,"identifier":"cr955e904-e3dd-4d7e-99f1-3fed446f96d6","contract":{"id":1,"identifier":"urn:uuid:99ddffff-2f73-46b0-92d1-614409d83001"},"data_catalog":{"id":1,"identifier":"urn:nbn:fi:att:2955e904-e3dd-4d7e-99f1-3fed446f96d1"},"dataset_version_set":[{"identifier":"cr955e904-e3dd-4d7e-99f1-3fed446f96d6","preferred_identifier":"urn:nbn:fi:att:1955e904-e3dd-4d7e-99f1-3fed446f96d6","removed":false,"date_created":"2017-05-23T13:07:22+03:00"}],"deprecated":false,"metadata_owner_org":"abc-org-123","metadata_provider_org":"abc-org-123","metadata_provider_user":"abc-user-123","research_dataset":{"files":[{"title":"File metadata title 11","file_type":{"identifier":"http://uri.suomi.fi/codelist/fairdata/file_type/code/image"},"identifier":"pid:urn:11","use_category":{"identifier":"http://uri.suomi.fi/codelist/fairdata/use_category/code/publication"}},{"title":"File metadata title 12","file_type":{"identifier":"http://uri.suomi.fi/codelist/fairdata/file_type/code/source_code"},"identifier":"pid:urn:12","use_category":{"identifier":"http://uri.suomi.fi/codelist/fairdata/use_category/code/documentation"}}],"title":{"en":"Wonderful Title"},"creator":[{"name":"Teppo Testaaja","@type":"Person","member_of":{"name":{"fi":"Mysteeriorganisaatio"},"@type":"Organization"},"contributor_role":[{"identifier":"http://uri.suomi.fi/codelist/fairdata/contributor_role/code/visualization"}]}],"curator":[{"name":"Rahikainen","@type":"Person","member_of":{"name":{"fi":"MysteeriOrganisaatio"},"@type":"Organization"},"identifier":"id:of:curator:rahikainen"}],"language":[{"identifier":"http://lexvo.org/id/iso639-3/eng"}],"modified":"2014-01-17T08:19:58Z","description":{"en":"A descriptive description describing the contents of this dataset. Must be descriptive."},"access_rights":{"access_type":{"identifier":"http://uri.suomi.fi/codelist/fairdata/access_type/code/open"}},"version_notes":["This version contains changes to x and y."],"preferred_identifier":"urn:nbn:fi:att:1955e904-e3dd-4d7e-99f1-3fed446f96d6","total_files_byte_size":2300,"metadata_version_identifier":"1955e904-e3dd-4d7e-99f1-3fed446f96d6"},"preservation_state":70,"preservation_state_modified":"2017-05-23T13:07:22.559656+03:00","editor":{"owner_id":"053bffbcc41edad4853bea91fc42ea18","record_id":"955e904-e3dd-4d7e-99f1-3fed446f9006","creator_id":"053bffbcc41edad4853bea91fc42ea18","identifier":"qvain"},"user_modified":"abc-user=123","date_modified":"2017-06-23T13:07:22+03:00","date_created":"2017-05-23T13:07:22+03:00","service_created":"metax","removed":false},{"id":7,"identifier":"cr955e904-e3dd-4d7e-99f1-3fed446f96d7","contract":{"id":1,"identifier":"urn:uuid:99ddffff-2f73-46b0-92d1-614409d83001"},"data_catalog":{"id":1,"identifier":"urn:nbn:fi:att:2955e904-e3dd-4d7e-99f1-3fed446f96d1"},"dataset_version_set":[{"identifier":"cr955e904-e3dd-4d7e-99f1-3fed446f96d7","preferred_identifier":"urn:nbn:fi:att:1955e904-e3dd-4d7e-99f1-3fed446f96d7","removed":false,"date_created":"2017-05-23T13:07:22+03:00"}],"deprecated":false,"metadata_owner_org":"abc-org-123","metadata_provider_org":"abc-org-123","metadata_provider_user":"abc-user-123","research_dataset":{"files":[{"title":"File metadata title 13","file_type":{"identifier":"http://uri.suomi.fi/codelist/fairdata/file_type/code/source_code"},"identifier":"pid:urn:13","use_category":{"identifier":"http://uri.suomi.fi/codelist/fairdata/use_category/code/documentation"}},{"title":"File metadata title 14","file_type":{"identifier":"http://uri.suomi.fi/codelist/fairdata/file_type/code/source_code"},"identifier":"pid:urn:14","use_category":{"identifier":"http://uri.suomi.fi/codelist/fairdata/use_category/code/documentation"}}],"title":{"en":"Wonderful Title"},"creator":[{"name":"Teppo Testaaja","@type":"Person","member_of":{"name":{"fi":"Mysteeriorganisaatio"},"@type":"Organization"},"contributor_role":[{"identifier":"http://uri.suomi.fi/codelist/fairdata/contributor_role/code/visualization"}]}],"curator":[{"name":"Rahikainen","@type":"Person","member_of":{"name":{"fi":"MysteeriOrganisaatio"},"@type":"Organization"},"identifier":"id:of:curator:rahikainen"}],"language":[{"identifier":"http://lexvo.org/id/iso639-3/eng"}],"modified":"2014-01-17T08:19:58Z","description":{"en":"A descriptive description describing the contents of this dataset. Must be descriptive."},"access_rights":{"access_type":{"identifier":"http://uri.suomi.fi/codelist/fairdata/access_type/code/open"}},"version_notes":["This version contains changes to x and y."],"preferred_identifier":"urn:nbn:fi:att:1955e904-e3dd-4d7e-99f1-3fed446f96d7","total_files_byte_size":2700,"metadata_version_identifier":"1955e904-e3dd-4d7e-99f1-3fed446f96d7"},"preservation_state":70,"preservation_state_modified":"2017-05-23T13:07:22.559656+03:00","editor":{"owner_id":"053d18ecb29e752cb7a35cd77b34f5fd","record_id":"955e904-e3dd-4d7e-99f1-3fed446f9007","creator_id":"053d18ecb29e752cb7a35cd77b34f5fd","identifier":"qvain"},"user_modified":"abc-user=123","date_modified":"2017-06-23T13:07:22+03:00","date_created":"2017-05-23T13:07:22+03:00","service_created":"metax","removed":false},{"id":8,"identifier":"cr955e904-e3dd-4d7e-99f1-3fed446f96d8","contract":{"id":1,"identifier":"urn:uuid:99ddffff-2f73-46b0-92d1-614409d83001"},"data_catalog":{"id":1,"identifier":"urn:nbn:fi:att:2955e904-e3dd-4d7e-99f1-3fed446f96d1"},"dataset_version_set":[{"identifier":"cr955e904-e3dd-4d7e-99f1-3fed446f96d8","preferred_identifier":"urn:nbn:fi:att:1955e904-e3dd-4d7e-99f1-3fed446f96d8","removed":false,"date_created":"2017-05-23T13:07:22+03:00"}],"deprecated":false,"metadata_owner_org":"abc-org-123","metadata_provider_org":"abc-org-123","metadata_provider_user":"abc-user-123","research_dataset":{"files":[{"title":"File metadata title 15","file_type":{"identifier":"http://uri.suomi.fi/codelist/fairdata/file_type/code/source_code"},"identifier":"pid:urn:15","use_category":{"identifier":"http://uri.suomi.fi/codelist/fairdata/use_category/code/documentation"}},{"title":"File metadata title 16","identifier":"pid:urn:16","use_category":{"identifier":"configuration"}}],"title":{"en":"Wonderful Title"},"creator":[{"name":"Teppo Testaaja","@type":"Person","member_of":{"name":{"fi":"Mysteeriorganisaatio"},"@type":"Organization"},"contributor_role":[{"identifier":"http://uri.suomi.fi/codelist/fairdata/contributor_role/code/visualization"}]}],"curator":[{"name":"Rahikainen","@type":"Person","member_of":{"name":{"fi":"MysteeriOrganisaatio"},"@type":"Organization"},"identifier":"id:of:curator:rahikainen"}],"language":[{"identifier":"http://lexvo.org/id/iso639-3/eng"}],"modified":"2014-01-17T08:19:58Z","description":{"en":"A descriptive description describing the contents of this dataset. Must be descriptive."},"access_rights":{"access_type":{"identifier":"http://uri.suomi.fi/codelist/fairdata/access_type/code/open"}},"version_notes":["This version contains changes to x and y."],"preferred_identifier":"urn:nbn:fi:att:1955e904-e3dd-4d7e-99f1-3fed446f96d8","total_files_byte_size":3100,"metadata_version_identifier":"1955e904-e3dd-4d7e-99f1-3fed446f96d8"},"preservation_state":90,"preservation_state_modified":"2017-05-23T13:07:22.559656+03:00","editor":{"owner_id":"05593961536b76fa825281ccaedd4d4f","record_id":"955e904-e3dd-4d7e-99f1-3fed446f9008","creator_id":"05593961536b76fa825281ccaedd4d4f","identifier":"qvain"},"user_modified":"abc-user=123","date_modified":"2017-06-23T13:07:22+03:00","date_created":"2017-05-23T13:07:22+03:00","service_created":"metax","removed":false},{"id":9,"identifier":"cr955e904-e3dd-4d7e-99f1-3fed446f96d9","contract":{"id":1,"identifier":"urn:uuid:99ddffff-2f73-46b0-92d1-614409d83001"},"data_catalog":{"id":1,"identifier":"urn:nbn:fi:att:2955e904-e3dd-4d7e-99f1-3fed446f96d1"},"dataset_version_set":[{"identifier":"cr955e904-e3dd-4d7e-99f1-3fed446f96d9","preferred_identifier":"urn:nbn:fi:att:1955e904-e3dd-4d7e-99f1-3fed446f96d9","removed":false,"date_created":"2017-05-23T13:07:22+03:00"}],"deprecated":false,"metadata_owner_org":"abc-org-123","metadata_provider_org":"abc-org-123","metadata_provider_user":"abc-user-123","research_dataset":{"files":[{"title":"File metadata title 17","identifier":"pid:urn:17","use_category":{"identifier":"configuration"}},{"title":"File metadata title 18","identifier":"pid:urn:18","use_category":{"identifier":"configuration"}}],"title":{"en":"Wonderful Title"},"creator":[{"name":"Teppo Testaaja","@type":"Person","member_of":{"name":{"fi":"Mysteeriorganisaatio"},"@type":"Organization"},"contributor_role":[{"identifier":"http://uri.suomi.fi/codelist/fairdata/contributor_role/code/visualization"}]}],"curator":[{"name":"Rahikainen","@type":"Person","member_of":{"name":{"fi":"MysteeriOrganisaatio"},"@type":"Organization"},"identifier":"id:of:curator:rahikainen"}],"language":[{"identifier":"http://lexvo.org/id/iso639-3/eng"}],"modified":"2014-01-17T08:19:58Z","description":{"en":"A descriptive description describing the contents of this dataset. Must be descriptive."},"access_rights":{"access_type":{"identifier":"http://uri.suomi.fi/codelist/fairdata/access_type/code/open"}},"version_notes":["This version contains changes to x and y."],"preferred_identifier":"urn:nbn:fi:att:1955e904-e3dd-4d7e-99f1-3fed446f96d9","total_files_byte_size":3500,"metadata_version_identifier":"1955e904-e3dd-4d7e-99f1-3fed446f96d9"},"preservation_state":130,"preservation_state_modified":"2017-05-23T13:07:22.559656+03:00","editor":{"owner_id":"055ea4dade5ab2145954f56d4b51cef0","record_id":"955e904-e3dd-4d7e-99f1-3fed446f9009","creator_id":"055ea4dade5ab2145954f56d4b51cef0","identifier":"qvain"},"user_modified":"abc-user=123","date_modified":"2017-06-23T13:07:22+03:00","date_created":"2017-05-23T13:07:22+03:00","service_created":"metax","removed":false},{"id":10,"identifier":"cr955e904-e3dd-4d7e-99f1-3fed446f9610","alternate_record_set":["cr955e904-e3dd-4d7e-99f1-3fed446f9627","cr955e904-e3dd-4d7e-99f1-3fed446f9628"],"contract":{"id":1,"identifier":"urn:uuid:99ddffff-2f73-46b0-92d1-614409d83001"},"data_catalog":{"id":1,"identifier":"urn:nbn:fi:att:2955e904-e3dd-4d7e-99f1-3fed446f96d1"},"dataset_version_set":[{"identifier":"cr955e904-e3dd-4d7e-99f1-3fed446f9610","preferred_identifier":"urn:nbn:fi:att:1955e904-e3dd-4d7e-99f1-3fed446f9610","removed":false,"date_created":"2017-05-23T13:07:22+03:00"}],"deprecated":false,"metadata_owner_org":"abc-org-123","metadata_provider_org":"abc-org-123","metadata_provider_user":"abc-user-123","research_dataset":{"files":[{"title":"File metadata title 19","identifier":"pid:urn:19","use_category":{"identifier":"configuration"}},{"title":"File metadata title 20","identifier":"pid:urn:20","use_category":{"identifier":"configuration"}}],"title":{"en":"Wonderful Title"},"creator":[{"name":"Teppo Testaaja","@type":"Person","member_of":{"name":{"fi":"Mysteeriorganisaatio"},"@type":"Organization"},"contributor_role":[{"identifier":"http://uri.suomi.fi/codelist/fairdata/contributor_role/code/visualization"}]}],"curator":[{"name":"Rahikainen","@type":"Person","member_of":{"name":{"fi":"MysteeriOrganisaatio"},"@type":"Organization"},"identifier":"id:of:curator:rahikainen"}],"language":[{"identifier":"http://lexvo.org/id/iso639-3/eng"}],"modified":"2014-01-17T08:19:58Z","description":{"en":"A descriptive description describing the contents of this dataset. Must be descriptive."},"access_rights":{"access_type":{"identifier":"http://uri.suomi.fi/codelist/fairdata/access_type/code/open"}},"version_notes":["This version contains changes to x and y."],"preferred_identifier":"urn:nbn:fi:att:1955e904-e3dd-4d7e-99f1-3fed446f9610","total_files_byte_size":3900,"metadata_version_identifier":"1955e904-e3dd-4d7e-99f1-3fed446f9610"},"preservation_state":140,"preservation_state_modified":"2017-05-23T13:07:22.559656+03:00","editor":{"owner_id":"055ea531a6cac569425bed94459266ee","record_id":"955e904-e3dd-4d7e-99f1-3fed446f9010","creator_id":"055ea531a6cac569425bed94459266ee","identifier":"qvain"},"user_modified":"abc-user=123","date_modified":"2017-06-23T13:07:22+03:00","date_created":"2017-05-23T13:07:22+03:00","service_created":"metax","removed":false}]}